module mellium.im/xmpp

go 1.18

require (
	golang.org/x/image v0.0.0-20181116024801-cd38e8056d9b
	golang.org/x/net v0.5.0
	golang.org/x/sys v0.4.0
	golang.org/x/text v0.6.0
	golang.org/x/tools v0.5.0
	mellium.im/sasl v0.3.1
	mellium.im/xmlstream v0.15.4
)

require (
	golang.org/x/crypto v0.5.0 // indirect
	golang.org/x/mod v0.7.0 // indirect
	mellium.im/reader v0.1.0 // indirect
)
